<svg xmlns="http://www.w3.org/2000/svg" width="19.5" height="13.812" viewBox="0 0 19.5 13.812">
    <path id="Path_183" data-name="Path 183" d="M407.531,76.469H390.469a1.219,1.219,0,1,0,0,2.437h17.062a1.219,1.219,0,1,0,0-2.437Zm0-5.688H390.469a1.219,1.219,0,1,0,0,2.438h17.062a1.219,1.219,0,1,0,0-2.438Zm0-5.687H390.469a1.219,1.219,0,1,0,0,2.437h17.062a1.219,1.219,0,1,0,0-2.437Z" transform="translate(-389.25 -65.094)" fill="#042b6f"/>
</svg>
