<svg xmlns="http://www.w3.org/2000/svg" width="9.842" height="9.353" viewBox="0 0 9.842 9.353">
<g id="Group_85"   transform="translate(-44.682 -2258.39)">
<rect id="Rectangle_630"   width="3.687" height="3.453" rx="1.5" transform="translate(45.182 2258.89)" fill="none" stroke="#9094a3" stroke-width="1"/>
<rect id="Rectangle_631"   width="3.687" height="3.453" rx="1.5" transform="translate(45.182 2263.79)" fill="none" stroke="#9094a3" stroke-width="1"/>
<rect id="Rectangle_632"  width="3.687" height="3.453" rx="1.5" transform="translate(50.337 2263.79)" fill="none" stroke="#9094a3" stroke-width="1"/>
<rect id="Rectangle_633"   width="3.687" height="3.453" rx="1.5" transform="translate(50.337 2258.89)" fill="none" stroke="#9094a3" stroke-width="1"/>
</g>
</svg>
